{
  "project_info": {
    "project_number": "862923174233",
    "project_id": "smack-nfc-sample",
    "storage_bucket": "smack-nfc-sample.appspot.com"
  },
  "client": [
    {
      "client_info": {
        "mobilesdk_app_id": "1:862923174233:android:d2262d88d66c2047811c48",
        "android_client_info": {
          "package_name": "com.infineon.smack.sample"
        }
      },
      "oauth_client": [
        {
          "client_id": "862923174233-fsfm5k2aemt81bv78f1023eith0io5o8.apps.googleusercontent.com",
          "client_type": 3
        }
      ],
      "api_key": [
        {
          "current_key": "AIzaSyBGzNOAzc4ZxIX6aNmH_Z6UGHPEK2Mcr_s"
        }
      ],
      "services": {
        "appinvite_service": {
          "other_platform_oauth_client": [
            {
              "client_id": "862923174233-fsfm5k2aemt81bv78f1023eith0io5o8.apps.googleusercontent.com",
              "client_type": 3
            }
          ]
        }
      }
    }
  ],
  "configuration_version": "1"
}